newmtl aiStandard1SG
illum 4
Kd 0.00 0.00 0.00
map_Kd field.tga
Ka 0.00 0.00 0.00
Tf 1.00 1.00 1.00
Ni 0.00
newmtl aiStandard3SG
illum 4
Kd 0.00 0.00 0.00
Ka 0.00 0.00 0.00
Tf 1.00 1.00 1.00
Ni 0.00
newmtl aiStandard5SG
illum 4
Kd 0.00 0.00 0.00
map_Kd yellow2.tga
Ka 0.00 0.00 0.00
Tf 1.00 1.00 1.00
Ni 0.00
newmtl initialShadingGroup
illum 4
Kd 1.00 1.00 1.00
map_Kd metal.tga
Ka 0.00 0.00 0.00
Tf 1.00 1.00 1.00
Ni 1.00
newmtl pasted__pasted__pasted__aiStandard4SG1
illum 4
Kd 0.00 0.00 0.00
map_Kd metal.tga
Ka 0.00 0.00 0.00
Tf 1.00 1.00 1.00
Ni 0.00
newmtl pasted__pasted__pasted__aiStandard4SG2
illum 4
Kd 0.00 0.00 0.00
map_Kd metal.tga
Ka 0.00 0.00 0.00
Tf 1.00 1.00 1.00
Ni 0.00
newmtl pasted__pasted__pasted__pasted__aiStandard4SG1
illum 4
Kd 0.00 0.00 0.00
map_Kd metal.tga
Ka 0.00 0.00 0.00
Tf 1.00 1.00 1.00
Ni 0.00
newmtl pasted__pasted__pasted__pasted__aiStandard4SG2
illum 4
Kd 0.00 0.00 0.00
map_Kd metal.tga
Ka 0.00 0.00 0.00
Tf 1.00 1.00 1.00
Ni 0.00
